First doc creation - data analysis
…
Chiradzulu
5179.7754
50284.82
54051.93
64107.36

# 🖨️ View the tables
print(table_for_show)

# A tibble: 24 × 13
   District   name      tank_cleaned guard comm_taps HH_taps PI_taps per_reg_pay
   <chr>      <chr>     <chr>        <chr>     <dbl>   <dbl> <chr>         <dbl>
 1 Chiradzulu Litcheza  no           No            6      10 6                30
 2 Chiradzulu Namitembe no           Yes           6      10 6                50
 3 Chiradzulu Mtembo    yes          Yes          10      10 0                60
 4 Chiradzulu Namikate  yes          Yes           4       0 3 taps…          60
 5 Chiradzulu Glasten … no           Yes          28       0 0                70
 6 Chiradzulu Njuli     no           Yes           4       0 2 taps…          60
 7 Chikwawa   Kudziwa   no           Yes          10      10 <NA>             50
 8 Chiradzulu Ndunde    no           Yes           5      NA 11               60
 9 Chikwawa   Tsamba    yes          Yes          17      NA 1                70
10 Chiradzulu Malavi    no           No            2      NA 4                82
# ℹ 14 more rows
# ℹ 5 more variables: tanks_empty <chr>, total_mo_cost <dbl>,
#   total_mo_tariff <dbl>, CapManEx_mo_cost <dbl>, OpEx_mo_cost <dbl>
…
